<svg width="218" height="40" viewBox="0 0 218 40" fill="none" xmlns="http://www.w3.org/2000/svg">
<path d="M11.0043 25V14.8182H14.8224C15.6046 14.8182 16.2609 14.964 16.7912 15.2557C17.3248 15.5473 17.7275 15.9484 17.9993 16.4588C18.2744 16.9659 18.4119 17.5426 18.4119 18.1889C18.4119 18.8419 18.2744 19.4219 17.9993 19.929C17.7242 20.4361 17.3182 20.8355 16.7812 21.1271C16.2443 21.4155 15.5831 21.5597 14.7976 21.5597H12.267V20.0433H14.549C15.0064 20.0433 15.3809 19.9638 15.6726 19.8047C15.9643 19.6456 16.1797 19.4268 16.3189 19.1484C16.4614 18.87 16.5327 18.5502 16.5327 18.1889C16.5327 17.8277 16.4614 17.5095 16.3189 17.2344C16.1797 16.9593 15.9626 16.7455 15.6676 16.593C15.3759 16.4373 14.9998 16.3594 14.5391 16.3594H12.8487V25H11.0043ZM29.112 19.9091C29.112 21.0062 28.9065 21.9458 28.4956 22.728C28.0879 23.5069 27.5311 24.1035 26.8251 24.5178C26.1225 24.9321 25.3253 25.1392 24.4338 25.1392C23.5422 25.1392 22.7434 24.9321 22.0375 24.5178C21.3348 24.1001 20.778 23.5019 20.367 22.723C19.9593 21.9408 19.7555 21.0028 19.7555 19.9091C19.7555 18.812 19.9593 17.8741 20.367 17.0952C20.778 16.313 21.3348 15.7147 22.0375 15.3004C22.7434 14.8861 23.5422 14.679 24.4338 14.679C25.3253 14.679 26.1225 14.8861 26.8251 15.3004C27.5311 15.7147 28.0879 16.313 28.4956 17.0952C28.9065 17.8741 29.112 18.812 29.112 19.9091ZM27.2576 19.9091C27.2576 19.1368 27.1367 18.4856 26.8947 17.9553C26.6561 17.4216 26.3246 17.0189 25.9004 16.7472C25.4761 16.4721 24.9873 16.3345 24.4338 16.3345C23.8803 16.3345 23.3914 16.4721 22.9672 16.7472C22.5429 17.0189 22.2098 17.4216 21.9679 17.9553C21.7292 18.4856 21.6099 19.1368 21.6099 19.9091C21.6099 20.6813 21.7292 21.3343 21.9679 21.8679C22.2098 22.3982 22.5429 22.8009 22.9672 23.076C23.3914 23.3478 23.8803 23.4837 24.4338 23.4837C24.9873 23.4837 25.4761 23.3478 25.9004 23.076C26.3246 22.8009 26.6561 22.3982 26.8947 21.8679C27.1367 21.3343 27.2576 20.6813 27.2576 19.9091ZM32.7388 25L29.8652 14.8182H31.8489L33.6834 22.3004H33.7779L35.7367 14.8182H37.5414L39.5051 22.3054H39.5946L41.4292 14.8182H43.4128L40.5392 25H38.7196L36.6813 17.8558H36.6017L34.5584 25H32.7388ZM44.6918 25V14.8182H51.3139V16.3643H46.5362V19.1286H50.9709V20.6747H46.5362V23.4538H51.3537V25H44.6918ZM53.1957 25V14.8182H57.0138C57.796 14.8182 58.4523 14.9541 58.9826 15.2259C59.5162 15.4976 59.9189 15.8788 60.1907 16.3693C60.4658 16.8565 60.6033 17.425 60.6033 18.0746C60.6033 18.7275 60.4641 19.2943 60.1857 19.7749C59.9106 20.2521 59.5046 20.6217 58.9677 20.8835C58.4308 21.142 57.7712 21.2713 56.989 21.2713H54.2695V19.7401H56.7404C57.1978 19.7401 57.5723 19.6771 57.864 19.5511C58.1557 19.4219 58.3711 19.2346 58.5103 18.9893C58.6528 18.7408 58.7241 18.4358 58.7241 18.0746C58.7241 17.7133 58.6528 17.4051 58.5103 17.1499C58.3678 16.8913 58.1507 16.6958 57.859 16.5632C57.5674 16.4273 57.1912 16.3594 56.7305 16.3594H55.0401V25H53.1957ZM58.4556 20.3864L60.9762 25H58.918L56.4421 20.3864H58.4556ZM62.3011 25V14.8182H68.9233V16.3643H64.1456V19.1286H68.5803V20.6747H64.1456V23.4538H68.9631V25H62.3011ZM74.2553 25H70.805V14.8182H74.3249C75.3358 14.8182 76.2042 15.022 76.93 15.4297C77.6592 15.834 78.2193 16.4157 78.6104 17.1747C79.0015 17.9337 79.1971 18.8419 79.1971 19.8991C79.1971 20.9598 78.9999 21.8712 78.6055 22.6335C78.2144 23.3958 77.6493 23.9808 76.9102 24.3885C76.1744 24.7962 75.2894 25 74.2553 25ZM72.6495 23.4041H74.1658C74.8751 23.4041 75.4667 23.2749 75.9407 23.0163C76.4147 22.7545 76.771 22.3651 77.0096 21.848C77.2482 21.3277 77.3675 20.678 77.3675 19.8991C77.3675 19.1203 77.2482 18.474 77.0096 17.9602C76.771 17.4432 76.418 17.0571 75.9506 16.8018C75.4866 16.5433 74.9099 16.4141 74.2205 16.4141H72.6495V23.4041ZM84.4222 25V14.8182H88.32C89.0558 14.8182 89.6673 14.9342 90.1545 15.1662C90.645 15.3949 91.0112 15.7081 91.2532 16.1058C91.4985 16.5036 91.6211 16.9543 91.6211 17.4581C91.6211 17.8724 91.5415 18.227 91.3825 18.522C91.2234 18.8137 91.0096 19.0507 90.7411 19.233C90.4727 19.4152 90.1727 19.5462 89.8413 19.6257V19.7251C90.2025 19.745 90.5489 19.8561 90.8803 20.0582C91.2151 20.2571 91.4885 20.5388 91.7006 20.9034C91.9128 21.268 92.0188 21.7088 92.0188 22.2259C92.0188 22.7528 91.8912 23.2268 91.636 23.6477C91.3808 24.0653 90.9963 24.3951 90.4826 24.6371C89.9689 24.879 89.3226 25 88.5437 25H84.4222ZM86.2667 23.4588H88.2504C88.9199 23.4588 89.4021 23.3312 89.6971 23.076C89.9954 22.8175 90.1445 22.486 90.1445 22.0817C90.1445 21.7801 90.07 21.5083 89.9208 21.2663C89.7717 21.0211 89.5595 20.8288 89.2844 20.6896C89.0094 20.5471 88.6812 20.4759 88.3001 20.4759H86.2667V23.4588ZM86.2667 19.1484H88.0913C88.4094 19.1484 88.6961 19.0904 88.9513 18.9744C89.2066 18.8551 89.4071 18.6877 89.5529 18.4723C89.7021 18.2536 89.7766 17.995 89.7766 17.6967C89.7766 17.3023 89.6374 16.9775 89.359 16.7223C89.0839 16.4671 88.6746 16.3395 88.131 16.3395H86.2667V19.1484ZM92.9274 14.8182H95.0105L97.5012 19.3224H97.6007L100.091 14.8182H102.175L98.4707 21.2017V25H96.6312V21.2017L92.9274 14.8182Z" fill="#2563EB"/>
<path d="M120.422 10.0149L120.522 10.0149C125.789 10.3004 129.972 14.6617 129.972 20C129.972 25.5228 125.494 30 119.972 30C114.449 30 109.972 25.5228 109.972 20C109.972 18.4967 111.258 17.4088 112.749 17.2183L115.505 16.8661C115.282 17.5336 115.202 18.2607 115.297 19.0058C115.634 21.6475 118.05 23.5154 120.691 23.1778C123.333 22.8403 125.201 20.4251 124.863 17.7834C124.526 15.1416 122.111 13.2738 119.469 13.6113C118.48 13.7376 117.427 14.2089 116.496 14.7492C114.659 15.8145 112.472 16.2581 110.959 14.7694C108.916 12.7595 107.115 10 108.471 10L120.422 10.0149Z" fill="#1D4ED8"/>
<path fill-rule="evenodd" clip-rule="evenodd" d="M120.514 10.0149L120.484 10.0149L108.463 10C106.929 10 109.515 14.0414 111.818 15.8706C112.898 16.7277 114.262 16.2273 115.396 15.4443C116.467 14.7042 117.902 13.88 119.244 13.6443C119.648 13.5499 120.069 13.5 120.501 13.5C123.539 13.5 126.001 15.9625 126.001 19C126.001 22.0376 123.539 24.5 120.501 24.5C117.464 24.5 115.001 22.0376 115.001 19C115.001 18.2468 115.153 17.5289 115.427 16.8751L112.741 17.2183C111.25 17.4088 109.964 18.4967 109.964 20C109.964 25.5228 114.441 30 119.964 30C125.487 30 129.964 25.5229 129.964 20C129.964 14.6617 125.781 10.3004 120.514 10.0149Z" fill="url(#paint0_linear_3676_8684)"/>
<path d="M144.102 19.9091C144.102 21.0062 143.897 21.9458 143.486 22.728C143.078 23.5069 142.521 24.1035 141.815 24.5178C141.113 24.9321 140.316 25.1392 139.424 25.1392C138.532 25.1392 137.734 24.9321 137.028 24.5178C136.325 24.1001 135.768 23.5019 135.357 22.723C134.95 21.9408 134.746 21.0028 134.746 19.9091C134.746 18.812 134.95 17.8741 135.357 17.0952C135.768 16.313 136.325 15.7147 137.028 15.3004C137.734 14.8861 138.532 14.679 139.424 14.679C140.316 14.679 141.113 14.8861 141.815 15.3004C142.521 15.7147 143.078 16.313 143.486 17.0952C143.897 17.8741 144.102 18.812 144.102 19.9091ZM142.248 19.9091C142.248 19.1368 142.127 18.4856 141.885 17.9553C141.646 17.4216 141.315 17.0189 140.891 16.7472C140.466 16.4721 139.978 16.3345 139.424 16.3345C138.871 16.3345 138.382 16.4721 137.957 16.7472C137.533 17.0189 137.2 17.4216 136.958 17.9553C136.719 18.4856 136.6 19.1368 136.6 19.9091C136.6 20.6813 136.719 21.3343 136.958 21.8679C137.2 22.3982 137.533 22.8009 137.957 23.076C138.382 23.3478 138.871 23.4837 139.424 23.4837C139.978 23.4837 140.466 23.3478 140.891 23.076C141.315 22.8009 141.646 22.3982 141.885 21.8679C142.127 21.3343 142.248 20.6813 142.248 19.9091ZM145.846 25V14.8182H149.664C150.446 14.8182 151.103 14.9541 151.633 15.2259C152.167 15.4976 152.569 15.8788 152.841 16.3693C153.116 16.8565 153.254 17.425 153.254 18.0746C153.254 18.7275 153.115 19.2943 152.836 19.7749C152.561 20.2521 152.155 20.6217 151.618 20.8835C151.081 21.142 150.422 21.2713 149.639 21.2713H146.92V19.7401H149.391C149.848 19.7401 150.223 19.6771 150.514 19.5511C150.806 19.4219 151.021 19.2346 151.161 18.9893C151.303 18.7408 151.374 18.4358 151.374 18.0746C151.374 17.7133 151.303 17.4051 151.161 17.1499C151.018 16.8913 150.801 16.6958 150.509 16.5632C150.218 16.4273 149.842 16.3594 149.381 16.3594H147.691V25H145.846ZM151.106 20.3864L153.627 25H151.568L149.093 20.3864H151.106ZM158.402 25H154.952V14.8182H158.471C159.482 14.8182 160.351 15.022 161.077 15.4297C161.806 15.834 162.366 16.4157 162.757 17.1747C163.148 17.9337 163.344 18.8419 163.344 19.8991C163.344 20.9598 163.146 21.8712 162.752 22.6335C162.361 23.3958 161.796 23.9808 161.057 24.3885C160.321 24.7962 159.436 25 158.402 25ZM156.796 23.4041H158.312C159.022 23.4041 159.613 23.2749 160.087 23.0163C160.561 22.7545 160.917 22.3651 161.156 21.848C161.395 21.3277 161.514 20.678 161.514 19.8991C161.514 19.1203 161.395 18.474 161.156 17.9602C160.917 17.4432 160.564 17.0571 160.097 16.8018C159.633 16.5433 159.056 16.4141 158.367 16.4141H156.796V23.4041ZM165.096 25V14.8182H171.718V16.3643H166.941V19.1286H171.375V20.6747H166.941V23.4538H171.758V25H165.096ZM173.6 25V14.8182H177.418C178.2 14.8182 178.857 14.9541 179.387 15.2259C179.921 15.4976 180.323 15.8788 180.595 16.3693C180.87 16.8565 181.008 17.425 181.008 18.0746C181.008 18.7275 180.868 19.2943 180.59 19.7749C180.315 20.2521 179.909 20.6217 179.372 20.8835C178.835 21.142 178.175 21.2713 177.393 21.2713H174.674V19.7401H177.145C177.602 19.7401 177.977 19.6771 178.268 19.5511C178.56 19.4219 178.775 19.2346 178.915 18.9893C179.057 18.7408 179.128 18.4358 179.128 18.0746C179.128 17.7133 179.057 17.4051 178.915 17.1499C178.772 16.8913 178.555 16.6958 178.263 16.5632C177.972 16.4273 177.595 16.3594 177.135 16.3594H175.444V25H173.6ZM178.86 20.3864L181.381 25H179.322L176.846 20.3864H178.86ZM182.705 25V14.8182H189.228V16.3643H184.55V19.1286H188.781V20.6747H184.55V25H182.705ZM190.945 25H188.976L192.56 14.8182H194.837L198.427 25H196.458L193.739 16.9062H193.659L190.945 25ZM191.009 21.0078H196.379V22.4893H191.009V21.0078ZM199.579 25V23.8516L204.799 16.3643H199.549V14.8182H207.086V15.9666L201.871 23.4538H207.116V25H199.579Z" fill="#2563EB"/>
<rect x="0.25" y="0.25" width="217.5" height="39.5" rx="4.75" stroke="#3B82F6" stroke-width="0.5"/>
<defs>
<linearGradient id="paint0_linear_3676_8684" x1="118.501" y1="17.75" x2="124.251" y2="28.75" gradientUnits="userSpaceOnUse">
<stop stop-color="#3B82F6"/>
<stop offset="1" stop-color="#1E40AF"/>
</linearGradient>
</defs>
</svg>
